847246 162290
8772 422219
950182 364740
659654 956948
569756 324149
782995 740044
50148 868384
75868 28641
291042 268718
722379 34938
925436 538311
888387 711590
814459 329124
547298 435909
377697 633988
354187 199398
851999 538292
30015 679635
553356 742418
171793 857631
593482 829546
673537 334268
290203 738279
794864 74844
221259 366932
65009 738870
979474 765292
355400 901348
164489 616195
344336 629887
433036 2583
322526 586536
144265 653224
375336 691663
95560 837514
689089 288140
327846 160528
564926 842496
883373 209528
637440 838112
394013 370536
461194 320375
46996 203005
761938 197924
135003 407690
616728 97147
809498 886532
993788 838873
562094 799
531815 714431
252089 640011
293005 319413
24550 547001
654727 470037
167487 515516
852950 458648
230164 579855
290733 235663
464161 724848
156270 85133
771812 836238
167762 736957
528555 516849
76428 575617
574644 286312
487924 308322
90394 120657
585229 78902
122524 999166
431445 832768
78070 625934
508653 160672
524750 738981
850783 57620
891936 171264
512633 972837
462741 550963
786384 282912
429172 133490
853737 761017
991994 211595
959760 853193
201194 638416
765810 529087
760799 649517
367482 678683
264341 882045
312593 69072
681608 630901
600117 552108
601731 915454
353411 953810
6840 614128
703175 819126
752435 118066
430767 375054
123818 517462
735177 495049
333279 853610
891479 530603
869105 54397
173998 661545
126763 912886
164972 869989
988694 671929
295985 61581
805370 944846
355737 374709
973991 215449
486257 675864
660656 752821
375161 45168
135384 875163
914594 71961
167474 448671
997904 82107
165239 302185
408500 116075
673549 967051
280582 687427
668650 282004
807294 9613
206614 646587
662275 502775
936278 423558
207118 408788
946821 841895
769322 515858
633539 771371
834801 408860
151125 81367
651236 597142
563256 609644
208532 111842
311523 816672
879140 40115
980903 63766
451188 834683
186413 93049
509585 277021
527008 384450
890653 922884
224372 106260
38406 323596
805040 247747
313492 489245
330004 137156
263351 913025
916414 419120
730115 540792
910472 115319
155696 957573
318558 683403
464618 32537
808611 905977
484987 141446
415803 985832
299202 266910
229141 498072
530123 830566
563402 872532
87622 672679
688632 835090
325657 223672
828463 759888
459169 302753
239592 68726
358738 511375
964609 63964
909628 919774
137454 367085
619151 305270
210145 107306
657299 990664
986704 432879
472000 514797
248792 92105
148714 257759
3189 214361
134714 790726
402769 94851
420369 604305
681759 504295
819526 198505
159870 260651
873537 395311
430971 509564
535755 50653
747723 57664
487361 352839
357872 178903
691553 381231
36796 840602
767586 574145
29628 666214
152913 163091
296389 623497
429821 336828
92356 994909
81243 206278
51869 24492
653566 44395
391752 278380
248563 370609
73921 994588
402470 696872
275594 594921
651407 588860
993278 167822
364238 339510
242437 447330
597496 218079
548108 891178
600595 640435
226342 176605
789279 292724
793619 277564
888797 598284
11155 488007
44712 299383
963534 836270
456409 175501
887208 183220
456100 901300
109722 138339
632917 957089
902817 284363
397979 615018
492728 192058
308763 788394
152631 280746
478027 187263
668761 714459
224165 580247
128301 221710
943280 646937
355625 858083
973185 497557
122802 389212
505972 943517
272875 252477
