460781 463388
101325 519255
515021 700337
179925 188504
395190 890043
622886 69521
360149 780692
77730 554546
918800 768682
9692 110339
168801 769161
84423 318000
45665 850377
161527 910523
802222 316009
906986 385685
59652 394468
925615 767597
4057 902503
197193 755718
655761 448821
865464 939188
244758 948292
948911 198353
699435 594356
211309 123099
208186 34766
486082 85242
648855 10132
225548 339902
513996 328353
297846 138679
139084 871457
244141 89597
577425 580208
919966 214625
176185 259270
721592 312691
897862 681306
434919 379398
435852 282484
747 207068
63923 661165
917093 376028
113943 90894
771496 455550
188562 99235
885208 138476
193358 961964
978628 360891
305011 343147
352827 583873
130364 343125
535817 524967
591860 385388
196985 418429
706628 42951
593632 995293
666506 109586
665111 557786
542991 588913
509139 901777
757848 622191
71267 395427
266654 285970
201187 493499
539468 126307
750632 794198
329553 444526
876776 91952
152951 422092
271452 446860
319233 900927
112658 23579
215930 259236
73515 383240
562440 37549
517728 744302
629270 532994
916495 294804
166864 200921
543942 702762
206050 860918
468843 432192
191727 681972
426076 316039
548203 270694
41559 725088
493660 446724
863178 531363
415578 377117
802236 198961
816702 592049
541406 742802
693795 905856
150078 322660
990305 12897
159481 728193
733566 972254
824736 471117
666789 741749
672090 386697
359609 940992
745716 547109
903054 685456
67182 770945
257427 590298
21241 91609
351336 342559
570889 938425
327213 587728
333662 879620
215503 920890
556683 77195
955826 927353
264789 376442
592677 414936
628487 5769
406956 391765
487334 719510
471385 206922
93308 268092
273103 55288
84212 801882
937434 829432
613274 357241
840477 255976
93579 787310
519030 347084
705948 966392
32903 563043
874204 469900
338216 108089
89971 637137
474836 218352
309658 63444
106082 327810
495696 82680
957689 883898
236825 596150
512291 293003
7758 220972
384259 619861
497268 869282
26918 195756
704470 311093
36778 99152
929103 66844
458312 987272
903831 388776
595237 72653
612141 581732
479568 811187
583518 457752
213223 737173
994694 554013
611501 156587
613734 860289
516340 161399
603594 678798
167176 134770
341510 574611
399694 655512
6352 395166
520903 816298
159821 40372
606330 97745
334657 338398
463130 556311
673121 115613
129868 218915
376421 361676
135725 744719
653879 375261
282281 18411
336132 21147
700000 797668
895254 545304
821290 803504
974284 944931
763975 212598
349838 492945
408085 131027
871427 422700
280998 944024
436740 532123
49478 540558
775895 180832
454043 160817
440863 455354
955500 627006
49702 21812
968524 744133
391114 886348
558200 598101
370196 774392
910716 76290
233726 742839
923612 650837
383309 230832
283132 937837
99733 43803
948938 676386
762788 232695
910347 679145
333812 636644
918953 894981
75432 343492
78634 197696
728518 748152
950853 204065
964425 530907
92082 790972
673289 768860
10211 489901
682765 406074
68452 514168
700792 808593
194931 663263
878431 146994
675843 253624
178837 497445
440911 478266
10504 141922
49283 164041
116015 904145
245670 834172
876132 576883
802753 857281
336959 718443
228742 142705
581195 66495
980900 773263
972304 39932
613184 823733
283486 909357
42887 857252
203549 643758
67255 866707
555505 24488
417781 247584
235967 70750
757229 801043
389317 450838
640441 511528
5278 254219
619522 625268
173314 453237
452955 989252
397106 361525
23872 797786
897571 646025
249816 993999
