811371 38893
45120 1377
120710 259313
455847 421584
472777 41626
211047 192552
75136 232923
714974 25630
663448 758841
128229 7897
597052 26582
190640 45550
116199 934425
297182 808482
308321 995674
922294 85079
209865 816074
935773 344925
928562 386126
723864 492016
257084 527743
634696 731304
838736 81805
151473 344032
993265 855003
317720 570923
834135 573585
506084 459603
914919 704860
193774 358566
728829 832271
695306 76287
703612 389497
244008 882940
325393 879695
851803 293506
55618 71631
630609 327713
914936 732777
710464 993187
501360 280004
673190 75808
502666 791511
787690 917143
221174 741416
598746 407620
891398 869527
803886 807006
785025 192996
663771 485292
864825 697845
206033 539866
517703 822438
632374 372018
974120 240351
810838 698106
660724 1862
892806 60383
365302 145009
708550 528265
933326 541934
381887 65435
947262 347165
361837 116526
94033 13803
828700 196604
441361 211575
323353 55908
879445 802437
825797 120416
961014 90864
982403 479293
721130 743365
149750 599749
782596 617827
113205 188053
639982 57379
72961 32111
805774 781280
96675 805490
685200 662550
681905 892148
360614 87373
572726 325689
916019 377541
65242 992292
798443 754209
961511 873484
805809 248508
881883 412651
329002 274529
22668 435489
543197 86700
854270 188062
189816 28966
989187 424357
962320 217435
217990 606531
553091 297969
945700 728500
322255 66978
641211 900832
683254 700013
82443 777181
104259 727126
710432 535213
529286 130124
114994 828537
937225 808910
240616 247755
783052 933141
153384 262296
353646 526262
186909 574520
914074 999747
560533 409016
274652 371342
792639 338085
61764 55339
637184 630181
484850 283362
125730 795667
72079 270342
623239 391841
563813 316235
695125 630983
145058 708856
429945 68759
544250 152245
893386 143249
687827 13509
741889 40869
615196 680603
443183 145575
905536 313431
104205 560300
907512 198950
984487 249100
931533 734023
166552 772332
864113 475652
299241 205116
952821 852603
413463 634887
673780 840164
543184 50320
930742 935548
694341 340571
574296 851412
723125 903587
246815 60590
471984 714312
667879 697792
173269 377176
603313 912358
324350 161868
472028 651647
528079 900091
836491 636274
436984 906552
476161 526787
225997 280858
226630 446801
885972 510493
605663 894715
810945 274063
674278 400916
751479 743348
859049 535769
909312 642063
248509 628817
151371 161261
381606 696099
390017 302972
529885 636501
968520 235828
260035 886742
414055 632519
194482 887784
460559 768432
495045 572262
602488 512316
903688 594947
832113 356365
85328 744312
996729 505188
830694 509181
824243 651254
263442 290666
885057 818945
557518 123668
900839 734315
332064 192357
291226 53125
715343 836484
204064 184919
971236 233725
295985 958941
995467 122871
272087 656414
