454016 748556
299749 721269
914633 720043
642443 485070
101381 597384
867653 204875
677959 246081
792741 166073
127374 863947
989712 640847
174793 21093
891815 305426
206400 185292
67531 221630
682359 896352
313566 162719
977363 49607
662635 136886
569062 301815
224190 486290
934760 509755
382353 2609
548609 242277
812128 504215
328116 571932
998356 238456
461559 748574
907109 323149
566102 730038
750967 937858
438381 747469
794001 855982
502329 39917
577291 6879
389656 480927
776234 902187
807478 785206
122656 435800
763852 564450
313546 740423
975286 93995
71971 896584
586701 192949
526580 241309
259789 689791
102222 950659
149493 94053
929367 545655
109757 487352
653625 984159
904009 937102
793025 882721
197246 424275
3184 600274
477986 687947
137325 213347
624392 218003
257947 901908
467010 224186
316408 61429
902691 550986
935691 310027
898386 761244
606945 786178
185207 671290
626575 640374
475960 495268
816061 593390
571311 487926
236189 330222
818652 525935
421098 71680
126395 485284
334941 310620
296712 860875
273927 693757
791424 831113
580071 515432
907342 552160
587875 72361
335128 883718
193358 574260
676542 87278
966529 520890
854802 484003
575574 979597
343133 36035
485832 757542
599557 162364
858681 109895
44394 262163
214676 879197
192988 406430
252574 501490
244227 411353
704915 882031
657213 435999
697827 405629
102575 628860
832991 411899
693265 936736
110043 993297
432528 143129
736200 814568
594117 186581
789008 96147
442793 133021
552595 985126
401549 856093
710597 28980
989396 4255
975112 816658
250761 718765
48308 341979
398472 907333
311005 179686
671364 332181
580835 472840
517675 872963
298458 236849
358712 808047
46836 299719
361827 300408
838785 153026
183867 874622
524956 353165
502099 482718
538262 608651
963417 37099
73708 850313
821826 904479
880276 218032
568327 680107
819174 236898
609373 37411
391597 248202
828711 324023
883626 343449
408627 977480
901352 812530
709297 700579
429868 182678
400549 822409
561897 712650
948238 100816
273011 187140
707088 953640
259877 411482
356595 468690
857805 573035
998435 641964
625526 700495
377446 431526
856187 479114
764775 683358
473640 438993
692139 742892
968821 794102
916419 897991
315425 365014
287895 424883
731464 299779
539126 69700
490431 225629
967385 154717
460005 207300
688411 581106
840336 431921
759200 321950
840449 583131
292170 133342
405303 613225
492530 695824
544756 480477
441247 50648
354596 964654
730561 519723
363607 265341
170031 606476
315678 438160
846840 112932
207059 948963
552529 826735
377835 590214
460498 587727
546239 295438
900355 310506
158537 338331
540195 11492
815225 818222
752037 199067
986532 67479
732543 221633
903022 47750
163378 119459
302576 259541
917718 455234
600234 306706
602307 710560
468019 396163
370279 192439
491382 437586
201276 92283
436129 227285
109527 465275
865631 366123
481433 302233
684110 378872
931547 938940
