135911 854679
847560 687351
94838 94373
648631 651373
949281 826718
604388 310211
547922 773985
347498 763387
860970 555435
56569 418929
152980 311863
482503 102378
529122 313446
759633 435070
667115 20666
57687 401882
45121 202312
854575 611954
683903 821330
396476 424775
349041 901923
237894 393153
174707 438179
680327 479688
608962 815846
112752 447903
898357 282806
18990 721191
807629 27691
205437 588336
533056 984251
947949 798487
581002 301703
224954 621242
826944 433896
638339 201335
299108 357563
409902 117802
935178 267030
104561 383487
405467 378774
95276 975797
653434 637521
581251 982987
123389 425456
531221 28782
957032 624831
362492 902019
48400 239719
564588 131810
756503 988141
942935 159097
25702 106010
973692 759038
284434 835183
996063 672721
455959 487547
154277 965728
121790 673593
918302 924952
721541 650301
957662 445086
547231 186145
683460 558912
178997 276931
53604 623239
358313 96507
645247 599825
165171 93754
215309 892634
640189 652137
877419 391592
102198 244358
448560 430748
303004 251094
131762 702883
637103 544146
309735 176697
848871 789034
727061 338007
259132 743460
543966 829359
589777 888902
579794 929098
690786 513198
578471 703713
190388 851550
993821 195454
812820 368422
453282 701511
531612 907660
511465 373505
72388 73173
736162 205175
983394 158896
918950 620205
613112 353223
679348 798398
578063 968635
150673 999708
402523 284031
886942 449625
130401 102349
466267 472756
770530 413235
243996 772062
376851 894364
678144 517550
459223 392191
266532 490109
775798 81633
475446 644573
232084 794555
875754 193410
74408 424298
692048 351621
735465 279348
985461 159000
840043 805997
547317 298507
614154 767250
451687 553221
988116 174377
185088 122042
788679 444769
768851 281891
991794 875671
17269 612408
251876 759975
321171 703335
452443 571811
57863 42974
301547 330958
847504 65234
723439 922823
520324 445633
752036 117431
681368 891035
604149 9502
5240 669182
297718 484656
135973 598226
591560 726403
307823 557905
841038 390023
618263 746237
100505 480342
960149 149781
965909 481040
807259 467406
965733 370298
289285 32709
980816 226295
295555 259657
621791 479362
174084 675896
857363 129850
334728 770070
70594 782185
600583 596284
831314 591916
803385 379452
362533 684765
371667 886091
205703 625093
961528 79314
542299 94221
299104 898978
722416 37373
409118 18220
90210 177288
243184 183822
655589 729970
624435 182642
432268 173445
806134 821182
250997 161875
619637 583611
412787 233902
476639 588429
776135 707625
900095 248886
453416 78190
209637 309279
982002 513737
821789 175272
201844 595194
510994 669987
781071 635232
491249 638228
734054 301727
446868 853329
595979 975682
29524 726221
483617 583315
48990 897979
145831 36248
975385 161028
9866 759819
436776 687454
863294 942391
958856 970388
985341 825814
316628 766928
554118 644959
397820 217526
839654 594347
315948 728809
258415 922405
524451 568305
461248 946862
137512 573281
466734 701310
118236 260254
737461 377861
686876 596313
170668 183626
372501 460916
67490 55824
53229 426152
5416 346621
292717 614150
839986 523321
213008 466236
922843 895623
866859 192996
