535541 491865
836084 320350
982817 737458
627652 908757
166298 856449
142633 433449
257960 188339
114274 680514
857404 816931
939837 500925
677920 107682
408311 343389
269223 985134
748625 930850
600622 273462
869489 626840
55930 314756
780157 945054
150199 252537
830798 344043
68405 822066
591864 918617
947509 224406
903722 850546
675842 677754
870988 513357
867565 537444
350442 939512
584982 455098
787026 952985
327789 907781
89381 646201
785865 569589
604500 37582
861000 420970
150537 684351
503023 195183
497436 745046
977029 746614
646973 487108
281003 192340
756979 517173
566879 226095
578898 75170
583140 832987
833537 578025
353339 743571
36733 224796
532477 357582
904871 882240
141938 540391
619567 658332
673745 649424
911518 540947
876175 383087
135414 229924
885308 561365
250986 822932
750902 745103
899680 329054
819970 680089
572090 78718
887791 912405
198231 974581
503568 563102
360860 185219
326772 173143
731493 321915
970238 733600
259424 358610
337357 501514
105962 556004
63276 968363
309262 433085
303763 395981
689558 392774
780491 663842
560246 953153
687722 782004
397204 661692
792960 315576
736872 677122
822904 139449
223059 692090
16084 396123
903085 339437
544843 264816
585789 475932
361870 166633
317107 769526
910287 328451
803305 829649
51318 207237
917676 714808
509864 136904
263352 27730
115847 701404
133100 965512
127980 760574
106374 630700
966643 759421
954528 628986
753855 936808
487053 480151
160852 316154
464849 651122
197592 908611
730922 83493
743514 388239
264633 932580
815206 609118
952469 861057
794148 725873
486503 637448
96493 351986
951137 978229
56897 144350
339351 542009
119675 437864
451620 735260
783136 70501
373821 521257
126695 337092
4862 737408
165442 89199
910431 520833
723098 358797
116173 318077
991855 525074
321779 612024
456383 966525
416863 937592
399303 344608
110203 977489
776746 150583
945791 530293
855132 913760
972334 925369
634109 517232
857259 22570
745618 396270
291920 279431
215350 4901
121634 494529
200389 827814
752347 742906
575637 387563
35110 707925
31647 151153
10256 83680
167772 975449
605031 973017
917107 747436
621658 238490
523448 173230
127155 577019
205560 248815
661963 683779
590336 805855
521294 246780
973949 667530
731321 670876
478896 372170
241710 368371
214891 126613
286683 173149
622820 636497
828695 936218
283531 727375
491994 642784
607027 218318
417724 454449
982640 338829
27914 924861
167094 90222
772599 263105
914863 344202
552485 926367
114050 144279
658987 11870
981032 629700
754137 887808
188423 236980
624753 253986
153430 350674
188454 355088
97464 372918
503500 382996
902937 260349
340094 199283
239426 937358
207726 384983
908942 636272
601272 282003
868844 137846
627992 128951
930944 89628
108225 613963
706681 65027
704517 168010
970736 792593
627037 104448
249280 32815
987604 274028
104088 908866
930264 249306
280003 108084
253305 178386
610830 262550
355741 355138
337478 990020
990723 241517
282238 530523
