255078 873191
517426 776738
858014 747400
191204 753174
287754 23261
129227 573123
927728 393853
619334 527293
374083 359080
229670 910314
957256 301659
457399 339112
393358 439014
75344 703769
297305 52650
940809 218188
706220 389621
786869 290157
688147 607173
895721 224915
377599 791241
464745 854866
62880 776289
977490 112682
942688 945505
936904 696984
718786 390518
944371 193761
151378 1735
402446 85883
345835 613301
392940 877214
378097 989725
514676 928247
186742 14574
528524 545106
881431 68336
914272 531708
836145 292908
291111 952530
545600 9127
313878 432420
508852 637836
609285 878182
958670 291927
682118 923351
319987 949280
339052 184667
956480 933189
959703 217783
970370 596569
280387 573090
503711 744352
343213 85406
369986 412759
917208 589267
72600 886825
796981 96706
490047 170736
352166 839333
704094 727119
451263 140377
3251 542104
277988 639894
724113 983865
944418 621443
567010 408071
662769 839241
978454 282758
837369 875776
4756 827903
278860 660074
910739 845250
174157 833350
712782 165174
660105 49766
372169 662447
597132 608578
196843 635558
538593 352944
443065 255829
269464 388119
366519 562942
608815 485571
194222 444680
11615 568303
16281 568937
312448 487871
861207 31287
183280 719676
533906 96904
244522 490596
621856 871281
24420 740356
18680 196739
813830 532341
464870 77678
810399 451172
401224 187806
645188 396430
309430 227271
391318 180232
105959 580290
3973 613648
955765 871355
912418 73742
342038 326312
245293 746705
550603 319682
862885 457736
968579 836587
719352 736907
840756 673884
661165 565440
670203 377363
269818 107002
407095 768210
109017 235427
369945 117077
812688 910672
961286 874663
418177 410095
968306 655161
670616 266845
66345 863810
710864 600082
771247 735504
539775 881436
152152 355389
920849 144576
965294 613362
335802 61837
267185 791192
115730 495099
403354 754164
421832 136411
78673 879452
683354 294088
422481 470726
622851 621556
29437 274182
901692 159989
359619 729072
702613 770635
935795 634205
837834 213496
827993 985405
379116 993756
745996 631465
539946 940117
374416 680993
698942 215482
134519 926584
180326 927457
310804 700405
177776 758561
511078 144225
19818 728820
451560 844604
816930 619973
133117 872313
569377 24589
214188 260021
182803 572749
67077 969901
796290 182953
391676 255523
879678 756501
858481 583028
39738 243020
297287 554595
736080 574294
163125 558825
128870 363366
360255 73914
671854 277171
417463 404676
547022 186839
711431 84290
680610 206960
3891 751229
427095 599832
152146 775331
907972 410880
559655 701137
936789 551554
80950 248035
426635 609366
235369 508027
56700 616906
203728 823859
834870 733345
583208 771129
36493 122662
305671 295966
811149 831084
112317 109056
275288 527211
543963 985521
61514 794510
993769 272845
361286 546443
100507 531297
474688 639328
368772 787736
904025 5487
826580 323731
535594 187586
400591 189463
361230 502046
140956 439390
316961 850660
477957 101516
285304 93862
938408 610365
722583 213081
984972 191604
242389 167975
255148 426931
528178 794495
841729 484450
49680 106338
563135 95823
65299 527413
590789 585142
392895 455000
334466 132041
429896 21186
225712 252665
829502 218661
777845 532843
