168075 677181 509
723204 750203 424
628405 440427 509
571372 919404 525
850344 536454 525
681582 162995 509
618794 618704 310
210884 763440 509
29525 707643 509
999169 716153 525
83751 889818 525
829095 792258 468
868808 778253 525
900225 871492 445
360346 875491 525
99496 444643 449
326973 725259 509
25670 712645 509
828878 674896 504
384625 814408 509
868693 947301 507
190766 446560 449
263185 228405 443
975500 476048 525
495089 526880 470
911082 737749 525
504390 885322 525
713615 750697 424
320934 536732 470
859036 455467 525
90466 280155 443
891070 839585 445
899468 610709 525
983021 216169 525
774959 317272 509
632357 551406 509
905776 948280 507
657033 281043 509
177741 125331 383
288369 982696 525
893821 373507 525
519970 887196 525
35161 991065 525
524289 338188 470
544697 654773 509
101292 937370 525
419856 112728 449
709967 605610 509
244902 226829 443
510612 530346 470
557966 771051 509
896280 790347 525
653132 530923 509
26313 559572 470
116729 27704 354
639813 878106 525
24744 248199 443
947898 801826 525
909842 416834 525
470092 139365 449
100495 515273 470
432518 783283 509
249776 66591 443
474323 154868 449
571020 835992 509
792835 15922 509
810920 362589 509
179401 306656 443
860384 600303 525
247237 136238 443
925071 961417 507
405666 343687 441
401877 910542 525
727795 877929 525
92282 58629 351
672670 671847 367
684817 540381 509
865417 602939 525
872396 937456 476
534633 914437 525
409801 493631 449
302960 776815 509
103440 143605 375
960670 559832 525
146387 749776 509
51901 579962 470
53750 419305 449
376543 937170 525
152361 699234 509
897370 582737 525
278105 814934 509
775096 540149 509
460760 744089 509
787462 889783 525
605599 31413 470
672398 450009 509
485701 23559 449
482108 66034 449
254475 726519 509
482897 721890 509
799099 624848 509
670479 698288 442
342998 993100 525
704172 779454 504
653529 430493 509
50938 584073 470
225125 863097 525
56916 610104 470
70117 270128 443
699147 310558 509
874384 20643 525
206219 415237 449
100270 405820 443
598923 753985 509
798069 630785 504
177956 281781 443
441987 937812 525
306844 289870 371
733655 553215 509
892703 591333 525
31659 706835 509
290531 133518 443
243101 525859 470
966642 602756 525
219062 499541 449
203450 92116 383
112695 722589 509
186088 298053 443
366676 775242 509
994766 161048 525
670246 937891 525
721183 606439 509
922882 336443 525
331314 665552 509
989292 324405 525
229289 801652 509
353626 977688 525
976410 540410 525
433303 872479 525
921050 512576 525
788930 478778 509
423713 98196 449
60003 429795 449
198136 661164 509
286980 893673 525
563706 963857 525
354760 482398 449
839500 885749 432
942509 665478 525
367133 906508 525
2047 308950 443
949693 929246 507
933561 436872 525
85153 663261 509
777115 632002 504
226325 830590 509
962703 330800 525
428849 905485 525
831067 118665 509
202065 950171 525
820698 275154 509
280390 667071 509
659237 561823 509
96729 226082 386
718969 120212 509
580963 850566 525
756893 610192 509
975390 232545 525
511234 954409 525
76405 950474 525
470361 13113 449
530092 221873 470
618147 307516 470
247672 2835 443
104059 689463 509
161862 209589 373
852878 184801 525
784566 761824 468
421093 802035 509
173505 366258 443
676524 700403 442
434850 928578 525
208072 355531 443
530174 466853 470
709680 74926 509
770307 841947 525
600978 991671 525
984147 556347 525
978325 979408 352
176497 961189 525
340651 331790 366
902229 22404 525
411807 26074 449
64256 321398 443
278890 501729 449
300880 20356 443
345436 643147 509
170453 24728 383
294829 540855 470
943 583639 470
252348 634218 509
321765 494004 449
781926 491696 509
568375 74868 470
905534 589886 525
366714 374859 392
398950 746569 509
386871 707281 509
590658 142878 470
318618 764816 509
719453 619842 509
846804 685507 525
657469 868957 525
819174 301913 509
879810 842647 432
956288 68139 525
450215 122597 449
248826 341585 407
